%YAML 1.1
%TAG !u! tag:unity3d.com,2011:
--- !u!114 &11400000
MonoBehaviour:
  m_ObjectHideFlags: 0
  m_CorrespondingSourceObject: {fileID: 0}
  m_PrefabInstance: {fileID: 0}
  m_PrefabAsset: {fileID: 0}
  m_GameObject: {fileID: 0}
  m_Enabled: 1
  m_EditorHideFlags: 0
  m_Script: {fileID: 11500000, guid: 2d14c6be321850744a4855e93da56234, type: 3}
  m_Name: DialogueEnd
  m_EditorClassIdentifier: 
  dialogue:
  - "After the escape room game concluded, a serene and pleasant melody wafted through
    the room. However, something peculiar unfolded \u2013 the firefly began to flicker,
    and its glow intensified."
  - It was then that this diminutive being revealed its true guise. Before the children,
    the spirit of a little boy materialized.
  - 'Lily: Oh my, you''re not just a firefly, are you? And that kid in the game...
    is that you'
  - 'MARK: (just as I suspected)'
  - "LEO: Don't be alarmed, friends. You helped me find something crucial \u2013
    my memories. And now I can share my story with you."
  - My full name is Leopold Finn Artley, I'm 10 years old. From early childhood,
    life presented me with unfathomable challenges. Despite some health issues, I
    had a good and loving family. At least, that's what I thought...
  - From birth, I was diagnosed with some complex condition related to muscles that
    couldn't function properly. Because of this, I spent most of my time at home
    while my peers enjoyed themselves outside, making friends.
  - ' I had friends too: my mom and dad. Mom was always there, coming up with different
    games to distract me from stress. What stress does a little child have, you might
    ask?'
  - Perhaps I was an ungrateful child, and I was very afraid when my parents played
    without me, shouting at each other. Or maybe because they wouldn't let me leave
    the house. Due to stress and some of my phobias, I started having difficulty
    breathing in stressful and unpleasant situations.
  - My parents said I had asthma complicated by muscular weakness. It didn't seem
    so frightening to me until the attacks started bothering me more and more. The
    parents also began to shout at each other too often.
  - ' Even outside their arguments, it felt like I could hear sounds of clattering
    dishes from the whispering walls. The house became somewhat scary, and at some
    point, eerily silent. My mother took off, bidding adieu with just one word: "forgive".'
  - Later, I realized that my parents divorced and for some reason decided to leave
    me with my dad. Sometimes he behaved strangely and incomprehensibly. He could
    be overly cheerful, to the point of falling and lying on the floor for a while.
  - Usually, mom didn't allow me to talk to dad in such a state, and I still don't
    know why. Sometimes the screams returned to my home, but since mom wasn't there,
    my dad took it out on me.
  - Each time, I felt sick and in pain, and he only came to my rescue when I became
    truly scared. I guess I'm truly a repulsive and awful son, don't you think?
  - One day, after another incident, he didn't come to help me. I remember a sharp
    pain squeezing my chest and throat, my heartbeat echoing loudly in my head. And
    then... there was only emptiness and oblivion.
  - But you know, I'm still grateful to my parents for giving me life, even if it
    was so short. And to you, guys, thank you. You became my real friends and helped
    me find peace. Farewell!
  - 
